<?xml version="1.0" encoding="UTF-8" standalone="no"?>
<!-- Created with Inkscape (http://www.inkscape.org/) -->

<svg
   xmlns:dc="http://purl.org/dc/elements/1.1/"
   xmlns:cc="http://creativecommons.org/ns#"
   xmlns:rdf="http://www.w3.org/1999/02/22-rdf-syntax-ns#"
   xmlns:svg="http://www.w3.org/2000/svg"
   xmlns="http://www.w3.org/2000/svg"
   xmlns:xlink="http://www.w3.org/1999/xlink"
   xmlns:inkscape="http://www.inkscape.org/namespaces/inkscape"
   version="1.1"
   width="32"
   height="32"
   viewBox="0 0 32 32"
   id="svg2">
  <defs
     id="defs4">
    <linearGradient
       id="linearGradient4198">
      <stop
         id="stop4200"
         style="stop-color:#ffffff;stop-opacity:1"
         offset="0" />
      <stop
         id="stop4208"
         style="stop-color:#ffffff;stop-opacity:1"
         offset="0.1" />
      <stop
         id="stop4271"
         style="stop-color:#ffffff;stop-opacity:0.90196079"
         offset="0.2" />
      <stop
         id="stop4206"
         style="stop-color:#00fff4;stop-opacity:0.80000001"
         offset="0.5" />
      <stop
         id="stop4202"
         style="stop-color:#0000ff;stop-opacity:0"
         offset="1" />
    </linearGradient>
    <linearGradient
       id="linearGradient4186">
      <stop
         id="stop4188"
         style="stop-color:#234469;stop-opacity:1"
         offset="0" />
      <stop
         id="stop4190"
         style="stop-color:#284e78;stop-opacity:1"
         offset="1" />
    </linearGradient>
    <linearGradient
       id="linearGradient4152">
      <stop
         id="stop4156"
         style="stop-color:#132b45;stop-opacity:1"
         offset="0" />
      <stop
         id="stop4154"
         style="stop-color:#284e78;stop-opacity:1"
         offset="1" />
    </linearGradient>
    <linearGradient
       id="linearGradient4641">
      <stop
         id="stop4643"
         style="stop-color:#1a1a1a;stop-opacity:0.27500001"
         offset="0" />
      <stop
         id="stop4645"
         style="stop-color:#000000;stop-opacity:0"
         offset="1" />
    </linearGradient>
    <clipPath
       id="clipPath4657">
      <rect
         width="15.5"
         height="15.5"
         ry="7.75"
         x="-5.75"
         y="-5.75"
         id="rect4659"
         style="fill:#c73fbf;fill-opacity:0.49397595;stroke:none" />
    </clipPath>
    <linearGradient
       x1="7"
       y1="1051.8622"
       x2="7"
       y2="1036.8622"
       id="linearGradient3801"
       xlink:href="#linearGradient4152"
       gradientUnits="userSpaceOnUse" />
    <linearGradient
       x1="9"
       y1="1051.8622"
       x2="9"
       y2="1036.8622"
       id="linearGradient3803"
       xlink:href="#linearGradient4186"
       gradientUnits="userSpaceOnUse" />
    <linearGradient
       x1="5"
       y1="1051.8622"
       x2="5"
       y2="1036.8622"
       id="linearGradient3835"
       xlink:href="#linearGradient4152"
       gradientUnits="userSpaceOnUse" />
    <linearGradient
       x1="4"
       y1="1051.8622"
       x2="4"
       y2="1036.8622"
       id="linearGradient3838"
       xlink:href="#linearGradient4152"
       gradientUnits="userSpaceOnUse" />
    <linearGradient
       x1="3"
       y1="1051.8622"
       x2="3"
       y2="1036.8622"
       id="linearGradient3841"
       xlink:href="#linearGradient4152"
       gradientUnits="userSpaceOnUse" />
    <linearGradient
       x1="14"
       y1="16"
       x2="14"
       y2="-3"
       id="linearGradient3940"
       xlink:href="#linearGradient4641"
       gradientUnits="userSpaceOnUse" />
    <radialGradient
       cx="8"
       cy="1046.8622"
       r="1"
       fx="8"
       fy="1046.8622"
       id="radialGradient3944"
       xlink:href="#linearGradient4198"
       gradientUnits="userSpaceOnUse"
       gradientTransform="matrix(1.2000008,0,0,2.7500092,-0.30000577,-1831.5184)" />
  </defs>
  <metadata
     id="metadata7">
    <rdf:RDF>
      <cc:Work
         rdf:about="">
        <dc:format>image/svg+xml</dc:format>
        <dc:type
           rdf:resource="http://purl.org/dc/dcmitype/StillImage" />
        <dc:title />
      </cc:Work>
    </rdf:RDF>
  </metadata>
  <g
     transform="translate(0,-1020.3622)"
     id="layer1">
    <g
       transform="matrix(2,0,0,2,0,-1052.3622)"
       id="g3844">
      <ellipse
         cx="8"
         cy="1044.3622"
         rx="7.5"
         ry="7.4999828"
         id="path4864"
         style="fill:url(#linearGradient3801);fill-opacity:1;stroke:url(#linearGradient3803);stroke-width:0.5;stroke-linecap:round;stroke-linejoin:round;stroke-miterlimit:4;stroke-opacity:1;stroke-dasharray:none;stroke-dashoffset:1.5" />
      <path
         d=""
         inkscape:connector-curvature="0"
         id="path4166"
         style="fill:url(#linearGradient3841);fill-opacity:1;stroke:none" />
      <path
         d=""
         inkscape:connector-curvature="0"
         id="path4170"
         style="fill:url(#linearGradient3838);fill-opacity:1;stroke:none" />
      <path
         d=""
         inkscape:connector-curvature="0"
         id="path4866"
         style="fill:url(#linearGradient3835);fill-opacity:1;stroke:none" />
      <g
         transform="matrix(0.89292868,0.45019815,-0.45019815,0.89292868,470.97025,108.20626)"
         id="g4378">
        <rect
           width="2.4000015"
           height="5.5000172"
           ry="0"
           x="8.0999985"
           y="1044.6122"
           id="rect4196"
           style="fill:url(#radialGradient3944);fill-opacity:1;stroke:none" />
        <use
           transform="translate(-2.6,0)"
           id="use4210"
           x="0"
           y="0"
           width="16"
           height="16"
           xlink:href="#rect4196" />
        <path
           d="M 5.0001498,1047.3623 11,1047.3621 7.999925,1038.3623 z"
           inkscape:connector-curvature="0"
           id="path4194"
           style="fill:#ffffff;fill-opacity:1;fill-rule:evenodd;stroke:none" />
      </g>
      <path
         d="m 12.5,6.25 a 0.25,0.25 0 1 1 -0.5,0 0.25,0.25 0 1 1 0.5,0 z"
         transform="translate(0,1036.3622)"
         id="path3016"
         style="fill:#ff73fb;fill-opacity:0.75294118;fill-rule:evenodd;stroke:#ff73fb;stroke-width:0.5;stroke-linecap:butt;stroke-linejoin:miter;stroke-miterlimit:4;stroke-opacity:0.25098039;stroke-dasharray:none" />
      <path
         d="m 12.367417,6.25 a 0.11741748,0.11741748 0 1 1 -0.234834,0 0.11741748,0.11741748 0 1 1 0.234834,0 z"
         transform="translate(-8.8355427,1037.9347)"
         id="path3788"
         style="fill:#ffffff;fill-opacity:0.75294118;fill-rule:evenodd;stroke:#ffffff;stroke-width:0.2;stroke-linecap:butt;stroke-linejoin:miter;stroke-miterlimit:4;stroke-opacity:0.25098039;stroke-dasharray:none" />
      <path
         d="m 12.632813,6.25 a 0.3828125,0.3828125 0 1 1 -0.765625,0 0.3828125,0.3828125 0 1 1 0.765625,0 z"
         transform="translate(-0.25,1043.1122)"
         id="path3790"
         style="fill:#ffffff;fill-opacity:0.75294118;fill-rule:evenodd;stroke:#ffffff;stroke-width:0.5;stroke-linecap:butt;stroke-linejoin:miter;stroke-miterlimit:4;stroke-opacity:0.25098039;stroke-dasharray:none" />
      <path
         d="m 12.5,6.25 a 0.25,0.25 0 1 1 -0.5,0 0.25,0.25 0 1 1 0.5,0 z"
         transform="translate(-9,1043.1122)"
         id="path3792"
         style="fill:#ffe38d;fill-opacity:0.75294118;fill-rule:evenodd;stroke:#ffe38d;stroke-width:0.5;stroke-linecap:butt;stroke-linejoin:miter;stroke-miterlimit:4;stroke-opacity:0.25098039;stroke-dasharray:none" />
      <path
         d="m 12.4375,6.25 a 0.1875,0.1875 0 1 1 -0.375,0 0.1875,0.1875 0 1 1 0.375,0 z"
         transform="translate(-5.25,1036.1122)"
         id="path3794"
         style="fill:#ffff9e;fill-opacity:0.75294118;fill-rule:evenodd;stroke:#ffff9e;stroke-width:0.60000002;stroke-linecap:butt;stroke-linejoin:miter;stroke-miterlimit:4;stroke-opacity:0.25098039;stroke-dasharray:none" />
      <path
         d="m 12.609375,6.25 a 0.359375,0.359375 0 1 1 -0.71875,0 0.359375,0.359375 0 1 1 0.71875,0 z"
         transform="translate(-9.15625,1033.4247)"
         id="path3796"
         style="fill:#bffaff;fill-opacity:0.75294118;fill-rule:evenodd;stroke:#bffaff;stroke-width:0.5;stroke-linecap:butt;stroke-linejoin:miter;stroke-miterlimit:4;stroke-opacity:0.25098039;stroke-dasharray:none" />
      <path
         d="m 12.429688,6.25 a 0.1796875,0.1796875 0 1 1 -0.359375,0 0.1796875,0.1796875 0 1 1 0.359375,0 z"
         transform="translate(-5.75,1032.6122)"
         id="path3786"
         style="fill:#ffffff;fill-opacity:0.75294118;fill-rule:evenodd;stroke:#ffffff;stroke-width:0.30000001;stroke-linecap:butt;stroke-linejoin:miter;stroke-miterlimit:4;stroke-opacity:0.25098039;stroke-dasharray:none" />
      <path
         d="m 12.328125,6.25 a 0.078125,0.078125 0 1 1 -0.15625,0 0.078125,0.078125 0 1 1 0.15625,0 z"
         transform="translate(0.21875,1041.8309)"
         id="path3798"
         style="fill:#9ef7d8;fill-opacity:0.75294118;fill-rule:evenodd;stroke:#9ef7d8;stroke-width:0.30000001;stroke-linecap:butt;stroke-linejoin:miter;stroke-miterlimit:4;stroke-opacity:0.25098039;stroke-dasharray:none" />
      <path
         d="m 12.328125,6.25 a 0.078125,0.078125 0 1 1 -0.15625,0 0.078125,0.078125 0 1 1 0.15625,0 z"
         transform="translate(-1.4164344,1038.45)"
         id="path3800"
         style="fill:#ffffff;fill-opacity:0.75294118;fill-rule:evenodd;stroke:#ffffff;stroke-width:0.30000001;stroke-linecap:butt;stroke-linejoin:miter;stroke-miterlimit:4;stroke-opacity:0.25098039;stroke-dasharray:none" />
      <path
         d="m 12.367417,6.25 a 0.11741748,0.11741748 0 1 1 -0.234834,0 0.11741748,0.11741748 0 1 1 0.234834,0 z"
         transform="translate(-3.5985331,1042.4204)"
         id="path3802"
         style="fill:#ffffff;fill-opacity:0.75294118;fill-rule:evenodd;stroke:#ffffff;stroke-width:0.2;stroke-linecap:butt;stroke-linejoin:miter;stroke-miterlimit:4;stroke-opacity:0.25098039;stroke-dasharray:none" />
      <path
         d="m 12.328125,6.25 a 0.078125,0.078125 0 1 1 -0.15625,0 0.078125,0.078125 0 1 1 0.15625,0 z"
         transform="translate(-2.6015625,1031.9403)"
         id="path3815"
         style="fill:#ffffff;fill-opacity:0.75294118;fill-rule:evenodd;stroke:#ffffff;stroke-width:0.1;stroke-linecap:butt;stroke-linejoin:miter;stroke-miterlimit:4;stroke-opacity:0.25098039;stroke-dasharray:none" />
      <path
         d="m 19,6.5 a 9.5,9.5 0 1 1 -19,0 9.5,9.5 0 1 1 19,0 z"
         inkscape:connector-curvature="0"
         transform="translate(6,1042.3622)"
         clip-path="url(#clipPath4657)"
         id="path3235"
         style="fill:url(#linearGradient3940);fill-opacity:1;stroke:none" />
      <rect
         width="16"
         height="16"
         x="0"
         y="1036.3622"
         id="rect3027"
         style="fill:none;stroke:none" />
    </g>
  </g>
</svg>
